{
    "forge_marker": 1,
    "defaults": {
        "textures": {
            "side": "biocircuitry:blocks/feed_bin_side",
            "end": "biocircuitry:blocks/feed_bin_end"
        }
    },
    "variants": {
        "normal": {
            "model": "cube_column"
        },
        "inventory": {
            "model": "cube_column"
        }
    }
}
