{
  "parent": "item/generated",
  "textures": {
    "layer0": "biocircuitry:items/rooping_iron"
  },
  "display": {
    "gui": {
      "rotation": [ 0, 0, 0 ],
      "translation": [ 0, 0, 0 ],
      "scale": [ 0.9, 0.9, 0.9 ]
    },
    "ground": {
      "rotation": [ 0, 0, 0 ],
      "translation": [ 0, 0, 0 ],
      "scale": [ 0.5, 0.5, 0.5 ]
    },
    "thirdperson_righthand": {
      "rotation": [ 0, 0, 45 ],
      "translation": [ 0, 3, 0 ],
      "scale": [ 0.5, 0.5, 0.5 ]
    },
    "thirdperson_lefthand": {
      "rotation": [ 0, 0, -45 ],
      "translation": [ 0, 3, 0 ],
      "scale": [ 0.5, 0.5, 0.5 ]
    },
    "firstperson_righthand": {
      "rotation": [ 0, -90, 25 ],
      "translation": [ 1.13, 3.2, 1.13],
      "scale": [ 0.5, 0.5, 0.5 ]
    },
    "firstperson_lefthand": {
      "rotation": [ 0, 90, -25 ],
      "translation": [ 1.13, 3.2, 1.13 ],
      "scale": [ 0.5, 0.5, 0.5 ]
    }
  }
}